{
  "command" : "chkp-cpstat_os_monitoring",
  "metrics" : [ {
    "tags" : {
      "im.metric-type" : "runtime",
      "im.name" : "os-version"
    },
    "value" : {
      "value" : "R77.30"
    }
  }, {
    "tags" : {
      "display-name" : " Overview",
      "im.metric-type" : "runtime",
      "im.name" : "model",
      "live-config" : "true"
    },
    "value" : {
      "value" : "2200"
    }
  }, {
    "tags" : {
      "display-name" : " Overview",
      "im.metric-type" : "runtime",
      "im.name" : "os-name",
      "live-config" : "true"
    },
    "value" : {
      "value" : "Gaia"
    }
  }, {
    "tags" : {
      "display-name" : " Overview",
      "im.metric-type" : "runtime",
      "im.name" : "vendor",
      "live-config" : "true"
    },
    "value" : {
      "value" : "Check Point"
    }
  }, {
    "tags" : {
      "display-name" : "Serial Numbers",
      "im.metric-type" : "runtime",
      "im.name" : "serial-numbers",
      "live-config" : "true"
    },
    "value" : [ {
      "serialnumber" : "249B01702",
      "name" : "hardware"
    } ]
  } ]
}
