{
  "command" : "fw-ctl-affinity-l-m",
  "metrics" : [ {
    "tags" : {
      "im.dstype" : "gauge",
      "im.metric-type" : "ts",
      "im.name" : "corexl-core-assigned-workers-and-nics",
      "im.step" : "300"
    },
    "value" : "1.0"
  } ]
}
