{
  "command" : "linux-network-bond-status",
  "metrics" : [ {
    "tags" : {
      "bond-name" : "bond0",
      "im.metric-type" : "runtime",
      "im.name" : "interface-aggregator-id",
      "interface-name" : "eth1-01"
    },
    "value" : {
      "value" : "1"
    }
  }, {
    "tags" : {
      "bond-name" : "bond0",
      "im.metric-type" : "runtime",
      "im.name" : "interface-aggregator-id",
      "interface-name" : "eth1-02"
    },
    "value" : {
      "value" : "1"
    }
  }, {
    "tags" : {
      "bond-name" : "bond1",
      "im.metric-type" : "runtime",
      "im.name" : "interface-aggregator-id",
      "interface-name" : "eth1-03"
    },
    "value" : {
      "value" : "1"
    }
  }, {
    "tags" : {
      "bond-name" : "bond1",
      "im.metric-type" : "runtime",
      "im.name" : "interface-aggregator-id",
      "interface-name" : "eth1-04"
    },
    "value" : {
      "value" : "1"
    }
  }, {
    "tags" : {
      "bond-name" : "bond2",
      "im.metric-type" : "runtime",
      "im.name" : "interface-aggregator-id",
      "interface-name" : "eth1-05"
    },
    "value" : {
      "value" : "1"
    }
  }, {
    "tags" : {
      "bond-name" : "bond2",
      "im.metric-type" : "runtime",
      "im.name" : "interface-aggregator-id",
      "interface-name" : "eth1-06"
    },
    "value" : {
      "value" : "1"
    }
  }, {
    "tags" : {
      "bond-name" : "bond3",
      "im.metric-type" : "runtime",
      "im.name" : "interface-aggregator-id",
      "interface-name" : "eth1-07"
    },
    "value" : {
      "value" : "1"
    }
  }, {
    "tags" : {
      "bond-name" : "bond3",
      "im.metric-type" : "runtime",
      "im.name" : "interface-aggregator-id",
      "interface-name" : "eth1-08"
    },
    "value" : {
      "value" : "1"
    }
  }, {
    "tags" : {
      "bond-name" : "bond4",
      "im.metric-type" : "runtime",
      "im.name" : "interface-aggregator-id",
      "interface-name" : "eth2-01"
    },
    "value" : {
      "value" : "1"
    }
  }, {
    "tags" : {
      "bond-name" : "bond4",
      "im.metric-type" : "runtime",
      "im.name" : "interface-aggregator-id",
      "interface-name" : "eth2-02"
    },
    "value" : {
      "value" : "1"
    }
  } ]
}
