{
  "command" : "f5-rest-mgmt-tm-sys-db-config-auditing",
  "metrics" : [ {
    "tags" : {
      "im.dstype.displaytype" : "state",
      "im.name" : "f5-audit-enabled"
    },
    "value" : {
      "value" : "enable"
    }
  } ]
}
