{
  "command" : "f5-rest-mtmgt-tm-ltm-profile-http-compression-stats",
  "metrics" : [ {
    "tags" : {
      "display-name" : "License Utilization",
      "im.dstype" : "counter",
      "im.dstype.displaytype" : "number",
      "im.identity-tags" : "name",
      "im.name" : "license-elements-used",
      "live-config" : "true",
      "name" : "Compression usage (Mbps)"
    },
    "value" : "362929.0"
  } ]
}
