{
  "command" : "f5-rest-mgmt-tm-sys-crypto-cert",
  "metrics" : [ {
    "tags" : {
      "im.dstype.displaytype" : "date",
      "im.name" : "certificate-expiration",
      "name" : "ca-bundle.crt"
    },
    "value" : "1.534948911E9"
  }, {
    "tags" : {
      "commonname" : "localhost.localdomain",
      "im.dstype.displaytype" : "date",
      "im.name" : "certificate-expiration",
      "name" : "default.crt"
    },
    "value" : "1.65080366E9"
  }, {
    "tags" : {
      "commonname" : "support.f5.com",
      "im.dstype.displaytype" : "date",
      "im.name" : "certificate-expiration",
      "name" : "f5-irule.crt"
    },
    "value" : "1.944415289E9"
  } ]
}
