{
  "command" : "f5-tmsh-show-sys-performance-throughput-raw",
  "metrics" : [ {
    "tags" : {
      "display-name" : "License Utilization",
      "im.dstype" : "gauge",
      "im.dstype.displaytype" : "number",
      "im.identity-tags" : "name",
      "im.metric-type" : "ts",
      "im.name" : "license-elements-used",
      "im.step" : "300",
      "live-config" : "true",
      "name" : "SSL TPS"
    },
    "value" : "546.0"
  }, {
    "tags" : {
      "display-name" : "License Utilization",
      "im.dstype" : "gauge",
      "im.dstype.displaytype" : "number",
      "im.identity-tags" : "name",
      "im.metric-type" : "ts",
      "im.name" : "license-elements-used",
      "im.step" : "300",
      "live-config" : "true",
      "name" : "VE Edition Maximum Throughput (Mbps)"
    },
    "value" : "736.897403"
  } ]
}
