{
  "command" : "f5-tmsh-list-ltm-profile-http-compression",
  "metrics" : [ {
    "tags" : {
      "im.metric-type" : "runtime",
      "im.name" : "f5-compression-profile-precompressed-content-types",
      "name" : "/Common/compression-level-1"
    },
    "value" : [ {
      "filetype" : "video"
    }, {
      "filetype" : "audio"
    } ]
  }, {
    "tags" : {
      "im.metric-type" : "runtime",
      "im.name" : "f5-compression-profile-precompressed-content-types",
      "name" : "/Common/compression-level-6"
    },
    "value" : [ ]
  }, {
    "tags" : {
      "im.metric-type" : "runtime",
      "im.name" : "f5-compression-profile-precompressed-content-types",
      "name" : "/Common/compression-level-9"
    },
    "value" : [ ]
  }, {
    "tags" : {
      "im.metric-type" : "runtime",
      "im.name" : "f5-compression-profile-precompressed-content-types",
      "name" : "/Common/compression-profile-with-pre-compressed"
    },
    "value" : [ {
      "filetype" : "zip"
    }, {
      "filetype" : "jpeg"
    }, {
      "filetype" : "video"
    }, {
      "filetype" : "audio"
    } ]
  }, {
    "tags" : {
      "im.metric-type" : "runtime",
      "im.name" : "f5-compression-profile-precompressed-content-types",
      "name" : "/Common/httpcompression"
    },
    "value" : [ ]
  }, {
    "tags" : {
      "im.metric-type" : "runtime",
      "im.name" : "f5-compression-profile-precompressed-content-types",
      "name" : "/Common/wan-optimized-compression"
    },
    "value" : [ ]
  } ]
}
