{
  "command" : "panos-debug-log-receiver-statistics",
  "metrics" : [ {
    "tags" : {
      "im.dstype" : "counter",
      "im.metric-type" : "ts",
      "im.name" : "log-forward-discarded-queue-full",
      "im.step" : "1800"
    },
    "values" : ["117.0", "119.0", "130.0", "149"]
  }, {
    "tags" : {
      "im.dstype" : "counter",
      "im.metric-type" : "ts",
      "im.name" : "log-forward-discarded-send-error",
      "im.step" : "1800"
    },
    "values" : ["102.0", "107", "110", "150"]
  }, {
    "tags" : {
      "im.dstype" : "counter",
      "im.metric-type" : "ts",
      "im.name" : "logs-discarded-queue-full",
      "im.step" : "1800"
    },
    "values" : ["0.0", "13", "17","33"]
  } ]
}
