{
  "command" : "panos-show-lacp-aggregate-ethernet-all",
  "metrics" : [ {
    "tags" : {
      "bond-name" : "ae1",
      "display-name" : "LACP Slaves - State",
      "im.dstype.displaytype" : "state",
      "im.identity-tags" : "name,bond-name",
      "im.name" : "bond-slave-state",
      "live-config" : "true",
      "name" : "ethernet1/1"
    },
    "value" : "0.0"
  }, {
    "tags" : {
      "bond-name" : "ae1",
      "display-name" : "LACP Slaves - State",
      "im.dstype.displaytype" : "state",
      "im.identity-tags" : "name,bond-name",
      "im.name" : "bond-slave-state",
      "live-config" : "true",
      "name" : "ethernet1/2"
    },
    "value" : "0.0"
  }, {
    "tags" : {
      "bond-name" : "ae2",
      "display-name" : "LACP Slaves - State",
      "im.dstype.displaytype" : "state",
      "im.identity-tags" : "name,bond-name",
      "im.name" : "bond-slave-state",
      "live-config" : "true",
      "name" : "ethernet1/3"
    },
    "value" : "1.0"
  }, {
    "tags" : {
      "bond-name" : "ae2",
      "display-name" : "LACP Slaves - State",
      "im.dstype.displaytype" : "state",
      "im.identity-tags" : "name,bond-name",
      "im.name" : "bond-slave-state",
      "live-config" : "true",
      "name" : "ethernet1/4"
    },
    "value" : "1.0"
  }, {
    "tags" : {
      "display-name" : "LACP - State",
      "im.dstype.displaytype" : "state",
      "im.identity-tags" : "name",
      "im.name" : "bond-state",
      "live-config" : "true",
      "name" : "ae1"
    },
    "value" : "0.0"
  }, {
    "tags" : {
      "display-name" : "LACP - State",
      "im.dstype.displaytype" : "state",
      "im.identity-tags" : "name",
      "im.name" : "bond-state",
      "live-config" : "true",
      "name" : "ae2"
    },
    "value" : "1.0"
  } ]
}
