{
  "command" : "panos-show-chassis-power",
  "metrics" : [ {
    "tags" : {
      "display-name" : "Chassis Power Components - State",
      "im.dstype.displaytype" : "state",
      "im.identity-tags" : "name",
      "im.name" : "hardware-element-status",
      "live-config" : "true",
      "name" : "FANTRAY1 - PA-7050-FANTRAY"
    },
    "value" : "0.0"
  }, {
    "tags" : {
      "display-name" : "Chassis Power Components - State",
      "im.dstype.displaytype" : "state",
      "im.identity-tags" : "name",
      "im.name" : "hardware-element-status",
      "live-config" : "true",
      "name" : "FANTRAY2 - PA-7050-FANTRAY"
    },
    "value" : "0.0"
  }, {
    "tags" : {
      "display-name" : "Chassis Power Components - State",
      "im.dstype.displaytype" : "state",
      "im.identity-tags" : "name",
      "im.name" : "hardware-element-status",
      "live-config" : "true",
      "name" : "PS1 - CAR2548FPBCXZ03A"
    },
    "value" : "1.0"
  }, {
    "tags" : {
      "display-name" : "Chassis Power Components - State",
      "im.dstype.displaytype" : "state",
      "im.identity-tags" : "name",
      "im.name" : "hardware-element-status",
      "live-config" : "true",
      "name" : "PS2 - CAR2548FPBCXZ03A"
    },
    "value" : "1.0"
  }, {
    "tags" : {
      "display-name" : "Chassis Power Components - State",
      "im.dstype.displaytype" : "state",
      "im.identity-tags" : "name",
      "im.name" : "hardware-element-status",
      "live-config" : "true",
      "name" : "Slot 4: PA-7050-SMC"
    },
    "value" : "1.0"
  }, {
    "tags" : {
      "display-name" : "Chassis Power Components - State",
      "im.dstype.displaytype" : "state",
      "im.identity-tags" : "name",
      "im.name" : "hardware-element-status",
      "live-config" : "true",
      "name" : "Slot 5: PA-7000-20G-NPC"
    },
    "value" : "1.0"
  }, {
    "tags" : {
      "display-name" : "Chassis Power Components - State",
      "im.dstype.displaytype" : "state",
      "im.identity-tags" : "name",
      "im.name" : "hardware-element-status",
      "live-config" : "true",
      "name" : "Slot 8: PA-7000-LPC"
    },
    "value" : "1.0"
  } ]
}
