{
  "command" : "panos-show-jobs-all",
  "metrics" : [ {
    "tags" : {
      "im.name" : "jobs"
    },
    "value" : [ {
      "id" : "1",
      "status" : "FIN",
      "result" : "OK"
    }, {
      "id" : "2",
      "status" : "FIN",
      "result" : "OK"
    }, {
      "id" : "3",
      "status" : "FIN",
      "result" : "OK"
    }, {
      "id" : "4",
      "status" : "ACT",
      "result" : "PEND"
    }, {
      "id" : "5",
      "status" : "FIN",
      "result" : "FAIL"
    }  ]
  } ]
}
