{
  "command" : "panos-show-running-global-ippool",
  "metrics" : [ {
    "tags" : {
      "display-name" : "Memory Usage",
      "im.dstype" : "gauge",
      "im.dstype.displaytype" : "percentage",
      "im.identity-tags" : "name",
      "im.metric-type" : "ts",
      "im.name" : "memory-usage",
      "im.step" : "600",
      "live-config" : "true",
      "name" : "Dynamic IP NAT Pool"
    },
    "values" : ["0.0", "1", "2.1", "77.1", "88", "33"]
  }, {
    "tags" : {
      "display-name" : "Memory Usage",
      "im.dstype" : "gauge",
      "im.dstype.displaytype" : "percentage",
      "im.identity-tags" : "name",
      "im.metric-type" : "ts",
      "im.name" : "memory-usage",
      "im.step" : "600",
      "live-config" : "true",
      "name" : "Dynamic IP/Port NAT Pool"
    },
    "values" : ["0.0", "1", "2.1", "77.1", "88", "33"]
  }, {
    "tags" : {
      "display-name" : "Memory Usage",
      "im.dstype" : "gauge",
      "im.dstype.displaytype" : "percentage",
      "im.identity-tags" : "name",
      "im.metric-type" : "ts",
      "im.name" : "memory-usage",
      "im.step" : "600",
      "live-config" : "true",
      "name" : "Used NAT DIP/DIPP shared memory size"
    },
    "values" : ["91.0", "89", "66", "65", "81"]
  } ]
}
