{
  "command" : "panos-show-arp-all",
  "metrics" : [ {
    "tags" : {
      "im.name" : "arp-table"
    },
    "value" : [ {
      "targetip" : "172.16.16.16",
      "mac" : "44:d2:44:29:c8:67",
      "success" : "1",
      "interface" : "ethernet1/4.10"
    }, {
      "targetip" : "172.16.16.8",
      "mac" : "30:52:cb:71:7a:ab",
      "success" : "1",
      "interface" : "ethernet1/4.10"
    }, {
      "targetip" : "172.16.16.37",
      "mac" : "00:cd:fe:0e:6b:5f",
      "success" : "1",
      "interface" : "ethernet1/4.10"
    }, {
      "targetip" : "172.16.16.254",
      "mac" : "b0:7f:b9:fc:6c:79",
      "success" : "1",
      "interface" : "ethernet1/4.10"
    }, {
      "targetip" : "172.16.20.216",
      "mac" : "(incomplete)",
      "success" : "0",
      "interface" : "ethernet1/4.20"
    }, {
      "targetip" : "172.16.16.9",
      "mac" : "4c:7c:5f:7e:91:16",
      "success" : "1",
      "interface" : "ethernet1/4.10"
    }, {
      "targetip" : "172.16.16.28",
      "mac" : "a0:88:69:66:8f:aa",
      "success" : "1",
      "interface" : "ethernet1/4.10"
    }, {
      "targetip" : "172.16.16.38",
      "mac" : "f0:79:60:0f:3a:5a",
      "success" : "1",
      "interface" : "ethernet1/4.10"
    }, {
      "targetip" : "96.64.249.14",
      "mac" : "c4:04:15:35:05:63",
      "success" : "1",
      "interface" : "ethernet1/1"
    }, {
      "targetip" : "172.16.16.19",
      "mac" : "68:c4:4d:9e:a1:df",
      "success" : "1",
      "interface" : "ethernet1/4.10"
    }, {
      "targetip" : "172.16.16.12",
      "mac" : "e0:ac:cb:62:f1:e6",
      "success" : "1",
      "interface" : "ethernet1/4.10"
    }, {
      "targetip" : "172.16.20.2",
      "mac" : "3c:a8:2a:1e:b2:ec",
      "success" : "1",
      "interface" : "ethernet1/4.20"
    }, {
      "targetip" : "172.16.20.5",
      "mac" : "00:0c:29:14:72:7f",
      "success" : "1",
      "interface" : "ethernet1/4.20"
    }, {
      "targetip" : "172.16.16.32",
      "mac" : "2c:b6:93:14:84:00",
      "success" : "1",
      "interface" : "ethernet1/4.10"
    }, {
      "targetip" : "172.16.20.30",
      "mac" : "00:a0:8e:b2:22:35",
      "success" : "1",
      "interface" : "ethernet1/4.20"
    }, {
      "targetip" : "172.16.17.7",
      "mac" : "88:15:44:a1:9d:a0",
      "success" : "1",
      "interface" : "ethernet1/4"
    }, {
      "targetip" : "10.20.30.1",
      "success" : "0",
      "interface" : "unknown",
      "mac" : "incomplete"
    } ]
  }, {
    "tags" : {
      "display-name" : "ARP Cache - Limit",
      "im.dstype.displaytype" : "number",
      "im.name" : "arp-limit",
      "live-config" : "true"
    },
    "value" : "500.0"
  }, {
    "tags" : {
      "display-name" : "ARP Cache - Current Entries",
      "im.dstype.displaytype" : "number",
      "im.name" : "arp-total-entries",
      "live-config" : "true"
    },
    "values" : ["465.0", "433", "495", "500"]
  } ]
}
