{
  "command" : "panos-show-high-availability-interface-ha1",
  "metrics" : [ {
    "tags" : {
      "high-availability-interface" : "true",
      "im.name" : "network-interface-admin-state",
      "name" : "Management Interface"
    },
    "value" : "0.0"
  }, {
    "tags" : {
      "high-availability-interface" : "true",
      "im.name" : "network-interfaces"
    },
    "value" : [ {
      "name" : "Management Interface"
    } ]
  }, {
    "tags" : {
      "high-availability-interface" : "true",
      "im.name" : "network-interface-mac",
      "name" : "Management Interface"
    },
    "value" : {
      "value" : "00:50:56:80:53:8e"
    }
  }, {
    "tags" : {
      "high-availability-interface" : "true",
      "im.name" : "network-interface-rx-bytes",
      "name" : "Management Interface",
      "im.dsType" : "counter"
    },
    "value" : "5.182494017E9"
  }, {
    "tags" : {
      "high-availability-interface" : "true",
      "im.name" : "network-interface-rx-dropped",
      "name" : "Management Interface",
      "im.dsType" : "counter"
    },
    "value" : "0.0"
  }, {
    "tags" : {
      "high-availability-interface" : "true",
      "im.name" : "network-interface-rx-errors",
      "name" : "Management Interface",
      "im.dsType" : "counter"
    },
    "value" : "0.0"
  }, {
    "tags" : {
      "high-availability-interface" : "true",
      "im.name" : "network-interface-rx-packets",
      "name" : "Management Interface",
      "im.dsType" : "counter"
    },
    "values" : ["0", "1055", "70188", "70188", "70188"]
  }, {
    "tags" : {
      "high-availability-interface" : "true",
      "im.name" : "network-interface-state",
      "name" : "Management Interface"
    },
    "value" : "1.0"
  }, {
    "tags" : {
      "high-availability-interface" : "true",
      "im.name" : "network-interface-tx-packets",
      "name" : "Management Interface",
      "im.dsType" : "counter"
    },
    "value" : "3452746.0"
  }, {
    "tags" : {
      "im.name" : "network-interface-tx-bytes",
      "name" : "Management Interface",
      "im.dsType" : "counter"
    },
    "value" : "1.24725589E9"
  } ]
}
