{
  "command" : "panos-show-vpn-flow",
  "metrics" : [ {
    "tags" : {
      "display-name" : "VPN Tunnels - Authentication Errors",
      "im.dstype" : "counter",
      "im.dstype.displaytype" : "number",
      "im.identity-tags" : "peerip",
      "im.name" : "vpn-tunnel-authentication-errors",
      "live-config" : "true",
      "name" : "81.218.161.237 (IPSec)",
      "peerip" : "81.218.161.237"
    },
    "value" : "0.0"
  }, {
    "tags" : {
      "always-on" : "true",
      "display-name" : "VPN Tunnels - State",
      "im.dstype.displaytype" : "state",
      "im.identity-tags" : "peerip",
      "im.name" : "vpn-tunnel-state",
      "live-config" : "true",
      "name" : "81.218.161.238 (IPSec)",
      "peerip" : "81.218.161.238"
    },
    "value" : "1.0"
  }, {
    "tags" : {
      "display-name" : "VPN Tunnels - Authentication Errors",
      "im.dstype" : "counter",
      "im.dstype.displaytype" : "number",
      "im.identity-tags" : "peerip",
      "im.name" : "vpn-tunnel-authentication-errors",
      "live-config" : "true",
      "name" : "81.218.161.238 (IPSec)",
      "peerip" : "81.218.161.238"
    },
    "value" : "0.0"
  }, {
    "tags" : {
      "display-name" : "VPN Tunnels - Authentication Errors",
      "im.dstype" : "counter",
      "im.dstype.displaytype" : "number",
      "im.identity-tags" : "peerip",
      "im.name" : "vpn-tunnel-authentication-errors",
      "live-config" : "true",
      "name" : "81.218.161.240 (IPSec)",
      "peerip" : "81.218.161.240"
    },
    "value" : "0.0"
  }, {
    "tags" : {
      "display-name" : "VPN Tunnels - Authentication Errors",
      "im.dstype" : "counter",
      "im.dstype.displaytype" : "number",
      "im.identity-tags" : "peerip",
      "im.name" : "vpn-tunnel-authentication-errors",
      "live-config" : "true",
      "name" : "81.218.161.241 (IPSec)",
      "peerip" : "81.218.161.241"
    },
    "value" : "0.0"
  }, {
    "tags" : {
      "display-name" : "VPN Tunnels - Authentication Errors",
      "im.dstype" : "counter",
      "im.dstype.displaytype" : "number",
      "im.identity-tags" : "peerip",
      "im.name" : "vpn-tunnel-authentication-errors",
      "live-config" : "true",
      "name" : "81.218.161.242 (IPSec)",
      "peerip" : "81.218.161.242"
    },
    "value" : "0.0"
  }, {
    "tags" : {
      "display-name" : "VPN Tunnels - Decryption Errors",
      "im.dstype" : "counter",
      "im.dstype.displaytype" : "number",
      "im.identity-tags" : "peerip",
      "im.name" : "vpn-tunnel-decryption-errors",
      "live-config" : "true",
      "name" : "81.218.161.237 (IPSec)",
      "peerip" : "81.218.161.237"
    },
    "value" : "0.0"
  }, {
    "tags" : {
      "display-name" : "VPN Tunnels - Decryption Errors",
      "im.dstype" : "counter",
      "im.dstype.displaytype" : "number",
      "im.identity-tags" : "peerip",
      "im.name" : "vpn-tunnel-decryption-errors",
      "live-config" : "true",
      "name" : "81.218.161.238 (IPSec)",
      "peerip" : "81.218.161.238"
    },
    "value" : "0.0"
  }, {
    "tags" : {
      "display-name" : "VPN Tunnels - Decryption Errors",
      "im.dstype" : "counter",
      "im.dstype.displaytype" : "number",
      "im.identity-tags" : "peerip",
      "im.name" : "vpn-tunnel-decryption-errors",
      "live-config" : "true",
      "name" : "81.218.161.240 (IPSec)",
      "peerip" : "81.218.161.240"
    },
    "value" : "0.0"
  }, {
    "tags" : {
      "display-name" : "VPN Tunnels - Decryption Errors",
      "im.dstype" : "counter",
      "im.dstype.displaytype" : "number",
      "im.identity-tags" : "peerip",
      "im.name" : "vpn-tunnel-decryption-errors",
      "live-config" : "true",
      "name" : "81.218.161.241 (IPSec)",
      "peerip" : "81.218.161.241"
    },
    "value" : "0.0"
  }, {
    "tags" : {
      "display-name" : "VPN Tunnels - Decryption Errors",
      "im.dstype" : "counter",
      "im.dstype.displaytype" : "number",
      "im.identity-tags" : "peerip",
      "im.name" : "vpn-tunnel-decryption-errors",
      "live-config" : "true",
      "name" : "81.218.161.242 (IPSec)",
      "peerip" : "81.218.161.242"
    },
    "value" : "0.0"
  }, {
    "tags" : {
      "always-on" : "false",
      "display-name" : "VPN Tunnels - State",
      "im.dstype.displaytype" : "state",
      "im.identity-tags" : "peerip",
      "im.name" : "vpn-tunnel-state",
      "live-config" : "true",
      "name" : "81.218.161.237 (IPSec)",
      "peerip" : "81.218.161.237"
    },
    "value" : "0.0"
  }, {
    "tags" : {
      "always-on" : "false",
      "display-name" : "VPN Tunnels - State",
      "im.dstype.displaytype" : "state",
      "im.identity-tags" : "peerip",
      "im.name" : "vpn-tunnel-state",
      "live-config" : "true",
      "name" : "81.218.161.240 (IPSec)",
      "peerip" : "81.218.161.240"
    },
    "value" : "0.0"
  }, {
    "tags" : {
      "always-on" : "false",
      "display-name" : "VPN Tunnels - State",
      "im.dstype.displaytype" : "state",
      "im.identity-tags" : "peerip",
      "im.name" : "vpn-tunnel-state",
      "live-config" : "true",
      "name" : "81.218.161.241 (IPSec)",
      "peerip" : "81.218.161.241"
    },
    "value" : "0.0"
  }, {
    "tags" : {
      "always-on" : "false",
      "display-name" : "VPN Tunnels - State",
      "im.dstype.displaytype" : "state",
      "im.identity-tags" : "peerip",
      "im.name" : "vpn-tunnel-state",
      "live-config" : "true",
      "name" : "81.218.161.242 (IPSec)",
      "peerip" : "81.218.161.242"
    },
    "value" : "0.0"
  } ]
}
