{
  "command" : "panos-show-running-resource-monitor-second",
  "metrics" : [ {
    "tags" : {
      "cpu-id" : "dp0: 0",
      "display-name" : "CPU Usage",
      "im.dstype.displaytype" : "percentage",
      "im.identity-tags" : "cpu-id",
      "im.name" : "cpu-usage",
      "live-config" : "true",
      "cpu-is-avg" : "false"
    },
    "values" : ["12.0", "19", "16", "18"]
  }, {
    "tags" : {
      "cpu-id" : "dp0: 1",
      "display-name" : "CPU Usage",
      "im.dstype.displaytype" : "percentage",
      "im.identity-tags" : "cpu-id",
      "im.name" : "cpu-usage",
      "live-config" : "true",
      "cpu-is-avg" : "false"
    },
    "values" : ["92.0", "89", "86", "88"]
  } ]
}
