{
  "command" : "cpmds-netobj_objects-mgmt.C",
  "metrics" : [ {
    "tags" : {
      "im.metric-type" : "runtime",
      "im.name" : "known-devices",
      "vs.ip" : "10.10.6.10",
      "vs.name" : "lab-CP-MGMT-R7730_Management_Server"
    },
    "value" : [ {
      "ip" : "10.10.6.51",
      "name" : "lab-CP-VSXVSLS-1-R7730"
    }, {
      "ip" : "10.10.6.26",
      "name" : "lab-CP-GW5-R7710"
    }, {
      "ip" : "10.10.6.21",
      "name" : "lab-CP-GW1-R7730"
    }, {
      "name" : "lab-CP-VSXVSLS-2-R7730",
      "ip" : "10.10.6.52"
    }, {
      "name" : "lab-CP-GW2-R7730",
      "ip" : "10.10.6.22"
    } ]
  }, {
    "tags" : {
      "im.metric-type" : "runtime",
      "im.name" : "known-devices",
      "vs.ip" : "10.10.6.14",
      "vs.name" : "MDM-VSX_Management_Server"
    },
    "value" : [ {
      "ip" : "10.10.6.51",
      "name" : "lab-CP-VSXVSLS-1-R7730"
    }, {
      "name" : "lab-CP-VSXVSLS-2-R7730",
      "ip" : "10.10.6.52"
    } ]
  } ]
}
