{
  "command" : "nexus-show-cdp-neighbors-detail",
  "metrics" : [ {
    "tags" : {
      "display-name" : "CDP",
      "im.identity-tags" : "name",
      "im.name" : "known-devices",
      "live-config" : "true"
    },
    "value" : [ {
      "name" : "N5k-DOWN.NOTEST.ME(SSI1837062A)",
      "ip" : "192.168.1.2"
    }, {
      "name" : "N5k-DOWN.NOTEST.ME(SSI1837062A)",
      "ip" : "10.23.23.2"
    }, {
      "name" : "SRVRACK-SW",
      "ip" : "10.10.8.14"
    } ]
  } ]
}
