{
  "command" : "fortios-get-ipsec-tunnel-list",
  "metrics" : [ {
    "tags" : {
      "display-name" : "VPN Tunnels - State",
      "im.dstype" : "gauge",
      "im.dstype.displaytype" : "state",
      "im.identity-tags" : "name",
      "im.metric-type" : "ts",
      "im.name" : "vpn-tunnel-state",
      "live-config" : "true",
      "name" : "Gateway 1.1.1.1:0",
      "peerip" : "1.1.1.1:0",
      "remote-peer-name" : "test test"
    },
    "value" : "0.0"
  }, {
    "tags" : {
      "display-name" : "VPN Tunnels - State",
      "im.dstype" : "gauge",
      "im.dstype.displaytype" : "state",
      "im.identity-tags" : "name",
      "im.metric-type" : "ts",
      "im.name" : "vpn-tunnel-state",
      "live-config" : "true",
      "name" : "Gateway 10.10.8.107:0",
      "peerip" : "10.10.8.107:0",
      "remote-peer-name" : "testme"
    },
    "value" : "1.0"
  }, {
    "tags" : {
      "display-name" : "VPN Tunnels - State",
      "im.dstype" : "gauge",
      "im.dstype.displaytype" : "state",
      "im.identity-tags" : "name",
      "im.metric-type" : "ts",
      "im.name" : "vpn-tunnel-state",
      "live-config" : "true",
      "name" : "Gateway 3.2.4.5:0",
      "peerip" : "3.2.4.5:0",
      "remote-peer-name" : "ipsec test ATH"
    },
    "value" : "0.0"
  } ]
}
