{
  "command" : "fortios-fortianalyzer-connectivity-status",
  "metrics" : [ {
    "tags" : {
      "display-name" : "FortiAnalyzer",
      "im.dstype" : "gauge",
      "im.dstype.displaytype" : "state",
      "im.identity-tags" : "name",
      "im.metric-type" : "ts",
      "im.name" : "fortios-analyzer-is-connected",
      "live-config" : "true",
      "name" : "Connection to Analyzer"
    },
    "value" : "0.0"
  } ]
}
