{
	"command": "linux-console_idle_time",
	"metrics": [{
		"tags": {
			"im.metric-type": "runtime",
			"im.name": "logged-in-users"
		},
		"values": [
			[{
				"username": "admin",
				"terminal": "pts/1",
				"idle": "0",
				"from": "10.10.1.251"
			}],
			[{
                "username": "bob",
                "terminal": "pts/1",
                "idle": "0",
                "from": "10.10.2.28"
            }, {
                "username": "alice",
                "terminal": "pts/1",
                "idle": "0",
                "from": "10.10.5.28"
            }]
		]

	}]
}