{
  "command" : "f5-rest-net-interface-route",
  "metrics" : [ {
    "tags" : {
      "display-name" : "Routes usage",
      "im.display-type" : "number",
      "im.name" : "routes-usage",
      "live-config" : "true"
    },
    "value" : "2.0"
  }, {
    "tags" : {
      "im.name" : "static-routing-table"
    },
    "value" : [ {
      "network" : "1.1.1.0",
      "next-hop" : "10.0.0.4",
      "mask" : "24"
    }, {
      "network" : "0.0.0.0",
      "next-hop" : "10.1.0.1",
      "mask" : "0"
    } ]
  } ]
}
