{
  "command" : "f5-rest-mgmt-tm-sys-file-ssl-crl",
  "metrics" : [ {
    "tags" : {
      "im.name" : "crl-last-modified",
      "name" : "mycrl.crl",
      "sourcepath" : "file:/config/ssl/ssl.crl/mycrl.crl"
    },
    "value" : "1.485914758E9"
  }, {
    "tags" : {
      "im.name" : "crl-last-modified",
      "name" : "mycrl2.crl",
      "sourcepath" : "file:/config/ssl/ssl.crl/mycrl.crl"
    },
    "value" : "1.485916027E9"
  } ]
}
