{
  "command" : "f5-w",
  "metrics" : [ {
    "tags" : {
      "im.metric-type" : "runtime",
      "im.name" : "logged-in-users"
    },
    "value" : [ {
      "username" : "user1",
      "idle" : "1",
      "from" : "10.10.10.11"
    }, {
      "idle" : "259200",
      "from" : "10.10.10.12",
      "username" : "user2"
    } ]
  } ]
}
