{
	"device-id": "580f5a74-f922-116a-a3f6-1312710f1ae7",
	"name" : "N5k-Down",
	"ip": "192.168.161.32",
	"tags": {
		"vendor": "cisco",
		"os.name": "nxos", 
		"os.version": "7.1(2)N1(1)", 
		"model": "Nexus5548", 
		"high-availability": "true", 
		"cluster-id" : "00:23:04:ee:be:1e:172.16.20.21:172.16.20.22",
		"hostname": "N5k-Down"
	}
}
