{
  "command" : "nexus-show-ip-route-direct",
  "metrics" : [ {
    "tags" : {
      "display-name" : "Directly Connected Networks",
      "im.metric-type" : "runtime",
      "im.name" : "connected-networks-table",
      "live-config" : "true"
    },
    "value" : [ {
      "network" : "192.168.100.0",
      "mask" : "24"
    }, {
      "mask" : "24",
      "network" : "192.168.101.0"
    }, {
      "network" : "192.168.255.1",
      "mask" : "32"
    } ]
  } ]
}
