{
	"device-id": "6bede5a2-1f2a-4ed5-8346-51b8dbb2a734",
	"name" : "chkp_gw2",
	"ip": "192.168.162.12",
	"tags": {
		"vendor": "checkpoint",
		"os.name": "gaia", 
		"model": "2200", 
		"chassis": "false", 
		"vsx": "true", 
		"vs-count": "8",
		"clusterxl" : "true",
    		"high-availability" : "true",
		"cluster-id": "chkp_cluster_sim_1939851",
		"role-firewall": "true"
	}
}
